{
  "providers": [
    "awscloudformation"
  ],
  "projectName": "FlutterTestBalanced",
  "version": "3.1",
  "frontend": "flutter",
  "flutter": {
    "config": {
      "ResDir": "./lib/"
    }
  }
}