{
  "version": 1,
  "serviceConfiguration": {
    "apiName": "FlutterTestBalanced",
    "serviceName": "AppSync",
    "gqlSchemaPath": "/tmp/amplify-e2ba39cc-8035-47c5-ab56-c190594cdcc4/amplify/backend/api/FlutterTestBalanced/schema.graphql",
    "defaultAuthType": {
      "mode": "API_KEY",
      "keyDescription": "api key description",
      "expirationTime": 30
    },
    "additionalAuthTypes": [
      {
        "mode": "AWS_IAM"
      }
    ],
    "conflictResolution": {
      "defaultResolutionStrategy": {
        "type": "AUTOMERGE"
      }
    }
  }
}